﻿CICERO LEONARDO DA SILVA;100%;100%;60%;100%;50%;20%;100%;100%;100%;100%;100%;0%
DANIEL DA SILVA FARIAS;100%;100%;100%;100%;100%;100%;100%;100%;100%;100%;100%;100%
DHEYSON LEE MOURA OLIVEIRA;30%;70%;100%;80%;90%;20%;100%;60%;100%;60%;60%;20%
DIEGO DA SILVA MENDES;10%;0%;10%;30%;10%;0%;20%;0%;15%;5%;0%;0%
EDSON BORGES DE SOUSA FILHO;30%;70%;50%;50%;0%;0%;50%;30%;60%;10%;0%;0%
FELIPE RESENDE GOMES;90%;100%;100%;100%;100%;90%;0%;0%;100%;100%;100%;0%
FRANCISCO ROBERTH DE BRITO SANTOS;0%;0%;0%;0%;0%;0%;10%;0%;100%;0%;0%;10%
GILDASIO DE LIMA CHAGAS FILHO;50%;60%;50%;60%;80%;0%;100%;100%;100%;100%;100%;0%
GUILHERME RODRIGUES SIMEÃO;10%;20%;10%;0%;0%;0%;0%;10%;20%;0%;5%;0%
HIDELBRANDO DOS SANTOS RIOS;0%;0%;0%;0%;0%;0%;5%;5%;0%;0%;0%;0%
JOAO LUCAS MARCELINO DE AZEVEDO GOMES;75%;50%;10%;0%;0%;10%;5%;0%;0%;5%;5%;0%
KAIRO EMANNOEL COSTA DE SOUZA;20%;75%;0%;10%;0%;10%;20%;30%;100%;0%;0%;5%
LEANDERSON DIAS DA SILVA;0%;0%;0%;0%;30%;0%;100%;10%;0%;5%;0%;0%
LEONARDO TORRES PEREIRA;50%;0%;10%;80%;0%;0%;100%;0%;100%;0%;0%;0%
LEONCIO FERREIRA DA SILVA NETO;100%;100%;100%;100%;100%;60%;100%;90%;100%;100%;100%;85%
LUAN DE AQUINO VIEIRA;0%;0%;0%;0%;0%;100%;0%;0%;0%;0%;0%;100%
LUCAS RODRIGUES DE CARVALHO;100%;80%;60%;0%;0%;0%;100%;100%;40%;100%;0%;0%
LUIZ FRANCISCO LOPES JUNIOR;10%;10%;10%;0%;0%;0%;100%;15%;10%;10%;50%;10%
LUIZA MENDES FONSECA FERREIRA NETA;50%;90%;0%;50%;0%;25%;50%;40%;95%;80%;20%;5%
MARCOS FERREIRA NASCIMENTO BISNETO;30%;30%;10%;30%;20%;0%;0%;0%;5%;0%;0%;0%
MARLYSSON DA SILVA OLIVEIRA;90%;100%;100%;100%;90%;90%;100%;100%;100%;100%;100%;0%
NAYARA DA SILVA FERREIRA;100%;100%;50%;100%;100%;0%;30%;100%;40%;20%;10%;0%
PAULO ROBERTO FERREIRA VIANA FILHO;70%;20%;20%;0%;0%;0%;10%;5%;5%;0%;0%;0%